%YAML 1.1
%TAG !u! tag:unity3d.com,2011:
--- !u!114 &11400000
MonoBehaviour:
  m_ObjectHideFlags: 0
  m_CorrespondingSourceObject: {fileID: 0}
  m_PrefabInstance: {fileID: 0}
  m_PrefabAsset: {fileID: 0}
  m_GameObject: {fileID: 0}
  m_Enabled: 1
  m_EditorHideFlags: 0
  m_Script: {fileID: 11500000, guid: 10ee8f3fba35a6d448b4c31bc9b15a06, type: 3}
  m_Name: Critter_WalkFront
  m_EditorClassIdentifier: 
  frames:
  - {fileID: 21300000, guid: 6cfe20efce43b8e4b9529b65917d487f, type: 3}
  - {fileID: 21300000, guid: b792594b19564714abf63cb43adda307, type: 3}
  - {fileID: 21300000, guid: 6183f4c5546ac95499130796a2d93b4d, type: 3}
  - {fileID: 21300000, guid: 2e9a6671f3b467243932554c646e713a, type: 3}
  - {fileID: 21300000, guid: 7e71d4c3acd81bf4bbcb1034916deeeb, type: 3}
  - {fileID: 21300000, guid: 3d0fc647ee693c54fb8069a50b495a66, type: 3}
  - {fileID: 21300000, guid: e58f04cac70deb843b89296390691a74, type: 3}
  - {fileID: 21300000, guid: 1171411bcced24745a4b0822da2e0d41, type: 3}
  - {fileID: 21300000, guid: afab5dd313c1861429c01e7d9eb0ece2, type: 3}
  - {fileID: 21300000, guid: 5daf76ba6beb37c4e94e730849f6c128, type: 3}
  - {fileID: 21300000, guid: 33ee1cd905241dc4f860459945c4bf56, type: 3}
  - {fileID: 21300000, guid: fe04202c970f0064fa1fdb0d09024cc5, type: 3}
  - {fileID: 21300000, guid: 41d51f448323c7048a959bdd8d4b41c0, type: 3}
  - {fileID: 21300000, guid: 6753a9f6ba0ea9a46887785d13e70903, type: 3}
  - {fileID: 21300000, guid: b32742b38fa04854ea14b18b4af1fcbf, type: 3}
  - {fileID: 21300000, guid: bedb92be8bb0be34cb36e81e4a0715c9, type: 3}
  - {fileID: 21300000, guid: 824bf528de3d2a54cbf1484f4b9c7eda, type: 3}
  - {fileID: 21300000, guid: e9a85b73146000a45b64de8a7b699050, type: 3}
  - {fileID: 21300000, guid: 7b15ef59410afb64892794d94cf949d8, type: 3}
  - {fileID: 21300000, guid: 4ef375779b6a0644aaaf3a6395695742, type: 3}
  - {fileID: 21300000, guid: 84ba003130eeaa64ab064d8353506ca7, type: 3}
  - {fileID: 21300000, guid: d9c5258634e72ac4db03f8906f9adb28, type: 3}
  - {fileID: 21300000, guid: 6ae10b1ee2771d347add2b9acd45ed14, type: 3}
  - {fileID: 21300000, guid: 6ec5b93c02eb1a549855eeac41e24201, type: 3}
  - {fileID: 21300000, guid: bf78fb89ba6876d4cb981828158df7f4, type: 3}
  - {fileID: 21300000, guid: 48d2c6bd87714b143a82df706f6f061a, type: 3}
  - {fileID: 21300000, guid: 82877097ea1bfcd4794d5dd40dffb395, type: 3}
  - {fileID: 21300000, guid: 7e7b305253bf4fc448ea732f4636a461, type: 3}
  - {fileID: 21300000, guid: 764c498f335c30e45a07ebd305102ee3, type: 3}
  - {fileID: 21300000, guid: 17b9a7540046b774880b6c9c86052f08, type: 3}
  - {fileID: 21300000, guid: fa7b718cc51969747864ff54f0772951, type: 3}
  - {fileID: 21300000, guid: 426d5dc7e470899459a9a9a4d83910e4, type: 3}
  - {fileID: 21300000, guid: 9cebb88a0bc41e44aba6ddab5febf35a, type: 3}
  - {fileID: 21300000, guid: 244b7b24b781378419aa32fb17e5ae1a, type: 3}
  - {fileID: 21300000, guid: c105102a9c753e543815710e66d64d43, type: 3}
  - {fileID: 21300000, guid: b8bbf1ebe49a85542b5df1906aa65b3e, type: 3}
  - {fileID: 21300000, guid: 066e794db0ca6484b808e0324e60eef9, type: 3}
  - {fileID: 21300000, guid: 51bcb25b26e0feb41b2a50840b882910, type: 3}
  - {fileID: 21300000, guid: e33cbf91054dc8b4fa3a2479353586e3, type: 3}
  - {fileID: 21300000, guid: 5565a29bf3f1ff74f91e39ea413aedda, type: 3}
  - {fileID: 21300000, guid: 9d83fed1f8962db4e82a2c4e22dd5394, type: 3}
  useDefaultFrameRate: 1
  animationSpeed: 2
  frameRate: 24
  loop: 1
