%YAML 1.1
%TAG !u! tag:unity3d.com,2011:
--- !u!114 &11400000
MonoBehaviour:
  m_ObjectHideFlags: 0
  m_CorrespondingSourceObject: {fileID: 0}
  m_PrefabInstance: {fileID: 0}
  m_PrefabAsset: {fileID: 0}
  m_GameObject: {fileID: 0}
  m_Enabled: 1
  m_EditorHideFlags: 0
  m_Script: {fileID: 11500000, guid: 10ee8f3fba35a6d448b4c31bc9b15a06, type: 3}
  m_Name: Critter_IdleBack
  m_EditorClassIdentifier: 
  frames:
  - {fileID: 21300000, guid: 76e91a3cb9c477a47991d6e16e15a379, type: 3}
  - {fileID: 21300000, guid: a671325fa76b274469b83cb4f9cd6a29, type: 3}
  - {fileID: 21300000, guid: d3d7e65c751fcee4c8859267cd8a2061, type: 3}
  - {fileID: 21300000, guid: 93ccb2d03b134674e9436940efd0bac4, type: 3}
  - {fileID: 21300000, guid: d7ab0236a46f72547a5a9168dc24467f, type: 3}
  - {fileID: 21300000, guid: 6e6db66215bff01418098c3262760d39, type: 3}
  - {fileID: 21300000, guid: 43c6c5e266ed1b74a9ca537175dd61e0, type: 3}
  - {fileID: 21300000, guid: 68a196fcb65b4424fbb32fba967c0761, type: 3}
  - {fileID: 21300000, guid: 76030d526c90dd343ae2c1919e2de249, type: 3}
  - {fileID: 21300000, guid: dba5c1c554b407543872bf7430ce13f6, type: 3}
  - {fileID: 21300000, guid: e016e3c3411039947bbf0a6b68b2834e, type: 3}
  - {fileID: 21300000, guid: e05ee3fde19937f43a2d6f39af3b79ac, type: 3}
  - {fileID: 21300000, guid: fdcc5da2e393f194da109569f959cfc4, type: 3}
  - {fileID: 21300000, guid: f7e656cc5877d104fad88b886a7212ed, type: 3}
  - {fileID: 21300000, guid: 9dd32d465c5daee409961da2a9bfeeb4, type: 3}
  - {fileID: 21300000, guid: 98c471d16c3ea5f4191b61592c459596, type: 3}
  - {fileID: 21300000, guid: 648ff002b287d9e4abef7dbf0dc2264e, type: 3}
  - {fileID: 21300000, guid: f607230ab3b859549935f37f509ee99c, type: 3}
  - {fileID: 21300000, guid: b418b7198c72b04429f0f842b7768f13, type: 3}
  - {fileID: 21300000, guid: d52298ed1b6971340ad1b559766ffeeb, type: 3}
  - {fileID: 21300000, guid: 844b4a8af448eab45adcc2426a1de786, type: 3}
  - {fileID: 21300000, guid: 48f09c53a792cfd47b721f0d2536305e, type: 3}
  - {fileID: 21300000, guid: d04015466a921384c9e3127e2c25b8b3, type: 3}
  - {fileID: 21300000, guid: c1dc4aa8a3167604189ecf3cb0cea180, type: 3}
  - {fileID: 21300000, guid: 5fed5fc152ddf04499f3d7c6be2f7925, type: 3}
  - {fileID: 21300000, guid: 03aa17a4a20b9c24f89557da7f2e2d88, type: 3}
  - {fileID: 21300000, guid: aea6714ec0bf1fc439f633c2b409c5af, type: 3}
  - {fileID: 21300000, guid: b37cd058d4160ec42a40add260726d67, type: 3}
  - {fileID: 21300000, guid: 15b0cf2ff47afe14b897f496367fee07, type: 3}
  - {fileID: 21300000, guid: d2c3e0fb3041e9d45b70fd415ee41602, type: 3}
  - {fileID: 21300000, guid: 27271fd31e71c1540b32cb96d60b2b4a, type: 3}
  - {fileID: 21300000, guid: e47b62e1c4ae1024cba8cef744f41a47, type: 3}
  - {fileID: 21300000, guid: 6749e68fd3b344c4d8869092f4ffbe67, type: 3}
  - {fileID: 21300000, guid: 37d6b7306966e4b4085bf25124852f89, type: 3}
  - {fileID: 21300000, guid: 3eb453dd73eced64e9e613a9cd026eac, type: 3}
  - {fileID: 21300000, guid: 240b89e57b720614c922c3b3a91a23ba, type: 3}
  - {fileID: 21300000, guid: ba9b4cfdf24318441b8f54dc86fe1791, type: 3}
  - {fileID: 21300000, guid: 75308fc1f0d59774b806d1bbff362254, type: 3}
  - {fileID: 21300000, guid: 6d918184e320a6f42bc87ab98e6fa953, type: 3}
  - {fileID: 21300000, guid: 99e927f345ca34041b79813496323273, type: 3}
  - {fileID: 21300000, guid: 8268698cbd678c64ea7cb565ac81fb1f, type: 3}
  useDefaultFrameRate: 1
  animationSpeed: 2
  frameRate: 24
  loop: 1
