%YAML 1.1
%TAG !u! tag:unity3d.com,2011:
--- !u!114 &11400000
MonoBehaviour:
  m_ObjectHideFlags: 0
  m_CorrespondingSourceObject: {fileID: 0}
  m_PrefabInstance: {fileID: 0}
  m_PrefabAsset: {fileID: 0}
  m_GameObject: {fileID: 0}
  m_Enabled: 1
  m_EditorHideFlags: 0
  m_Script: {fileID: 11500000, guid: 10ee8f3fba35a6d448b4c31bc9b15a06, type: 3}
  m_Name: Critter_WalkRight
  m_EditorClassIdentifier: 
  frames:
  - {fileID: 21300000, guid: a360308697d6cf646a2eb4c683791f6a, type: 3}
  - {fileID: 21300000, guid: 16c8895cd0ab1494da74de3f51f913d1, type: 3}
  - {fileID: 21300000, guid: 0e8ecccc04133f14f9d3fdc8fc08a2e6, type: 3}
  - {fileID: 21300000, guid: 651c1e2af0bb9274fbeed1462ab89c34, type: 3}
  - {fileID: 21300000, guid: 55e4396ea0a85f84facaf365cc53bc24, type: 3}
  - {fileID: 21300000, guid: 7938ec9884581cd4a9fc72274ec8ef1b, type: 3}
  - {fileID: 21300000, guid: a61617dfa2110d54595841bf4f6baf4d, type: 3}
  - {fileID: 21300000, guid: 5ef3ff53f16797f4fb5fd5994c68ac9b, type: 3}
  - {fileID: 21300000, guid: cd3124fa85d070d4f8aeb2617fcbebb7, type: 3}
  - {fileID: 21300000, guid: f7fb5504c558a234aaa336b70a20be36, type: 3}
  - {fileID: 21300000, guid: 1cd1bece529627540824029623ce9b38, type: 3}
  - {fileID: 21300000, guid: 0372aebd2a8c1df4082debaf7645b32c, type: 3}
  - {fileID: 21300000, guid: bd55f9d424d1e40429c5dc6ab86732a5, type: 3}
  - {fileID: 21300000, guid: 1c3a4d4d0310a494f8194526ed4ddb04, type: 3}
  - {fileID: 21300000, guid: fefb35b60bf7bbd44991129c04608f9f, type: 3}
  - {fileID: 21300000, guid: bee6f55efecfcd04faec6b38b82a4642, type: 3}
  - {fileID: 21300000, guid: 82c3020eb49d4db43beb824d6bcfc6e4, type: 3}
  - {fileID: 21300000, guid: 44e95511e2dbfde4f8bd3793d3aa9386, type: 3}
  - {fileID: 21300000, guid: 2288cf00a9c0daa4480f60f21de24a1d, type: 3}
  - {fileID: 21300000, guid: 90c4010f4d816774c9d94b3b9f505938, type: 3}
  - {fileID: 21300000, guid: 9f0a30a83bb5e5446bfb70222c2bede9, type: 3}
  - {fileID: 21300000, guid: 823650b4aab48fb4f87efc382fb07195, type: 3}
  - {fileID: 21300000, guid: 2cf9f7b02042c724f82cfe1f281e97f4, type: 3}
  - {fileID: 21300000, guid: ce5a254cc26bcee49a3060d9e1511ef1, type: 3}
  - {fileID: 21300000, guid: 73496e71397940542babe77fe025a804, type: 3}
  - {fileID: 21300000, guid: cdfa17d18ca33b6428db5a6e2de136b4, type: 3}
  - {fileID: 21300000, guid: 0628edf5f2866674a873b39b9e64d1f5, type: 3}
  - {fileID: 21300000, guid: 82a13d3158cf2e047861692fadbfd8d3, type: 3}
  - {fileID: 21300000, guid: 431c7f98d69e643479b2e495b165916b, type: 3}
  - {fileID: 21300000, guid: 06ed1451349c67e408a4dd5af9df3fb5, type: 3}
  - {fileID: 21300000, guid: 9432fa6fd0c5a8c49baac84c1dd6c7f2, type: 3}
  - {fileID: 21300000, guid: 5500efec8fa1b864b8eb5f6355c8e47e, type: 3}
  - {fileID: 21300000, guid: 5f0644cf12f395e4e9109536ee889109, type: 3}
  - {fileID: 21300000, guid: d797bd6b255a9b644a903a898174d7d5, type: 3}
  - {fileID: 21300000, guid: cc5c1895f4c0cb14c80800b4c88504dc, type: 3}
  - {fileID: 21300000, guid: 774ffa0037d23da4fa35d48ec717d9fd, type: 3}
  - {fileID: 21300000, guid: 2878924b50210b740bf54a5b3a8816cb, type: 3}
  - {fileID: 21300000, guid: aafeb321d2f0cab4c8c308c2af035460, type: 3}
  - {fileID: 21300000, guid: e6fda6d6c1b48674ab63f98cc343bae0, type: 3}
  - {fileID: 21300000, guid: a9ec9b3cd74b5dd4d8fe26c99f3ec42f, type: 3}
  - {fileID: 21300000, guid: 5941cd356a0cbee4d926e7c2a82744d3, type: 3}
  useDefaultFrameRate: 1
  animationSpeed: 2
  frameRate: 24
  loop: 1
