%YAML 1.1
%TAG !u! tag:unity3d.com,2011:
--- !u!114 &11400000
MonoBehaviour:
  m_ObjectHideFlags: 0
  m_CorrespondingSourceObject: {fileID: 0}
  m_PrefabInstance: {fileID: 0}
  m_PrefabAsset: {fileID: 0}
  m_GameObject: {fileID: 0}
  m_Enabled: 1
  m_EditorHideFlags: 0
  m_Script: {fileID: 11500000, guid: 98448c6d71dbb834b90a2b9b1f53e8ce, type: 3}
  m_Name: Mask Trap Settings
  m_EditorClassIdentifier: 
  activePreset: 0
  presets:
  - presetName: Sheila
    trapName: Mask
    uID: 5
    prefab: {fileID: 1776822308024464461, guid: 7562560ad3f6dae4bab092b8265ee7b2, type: 3}
    sprite: {fileID: 21300000, guid: 5a70adfcbe758264db0ede1a995ca884, type: 3}
    journalDetailedSprite: {fileID: 21300000, guid: 5a70adfcbe758264db0ede1a995ca884, type: 3}
    description: Scares off most enemies in a straight line in front of it. Expires
      after two minutes.
    trapType: 0
    trapDetection: 0
    trapLifespan: 3
    usesCount: 0
    lifespanTime: 120
    cost: 13
    damage: 0
    enemyDelay: 0
    placementTime: 1
    repulsionOdds:
    - enemySettings: {fileID: 11400000, guid: b6c3555b2eab7c64ab281b3f369b801e, type: 2}
      repulsionOdd: 0.745
      ignoreRepulsionIfPursuingPlayer: 1
    - enemySettings: {fileID: 11400000, guid: 7ce283eec0ece904db1ed15633472e08, type: 2}
      repulsionOdd: 1
      ignoreRepulsionIfPursuingPlayer: 1
    - enemySettings: {fileID: 11400000, guid: d48a0ff00e97ac9408baefe49f2031ae, type: 2}
      repulsionOdd: 0.526
      ignoreRepulsionIfPursuingPlayer: 1
    lockTrapOrientation: 0
