%YAML 1.1
%TAG !u! tag:unity3d.com,2011:
--- !u!114 &11400000
MonoBehaviour:
  m_ObjectHideFlags: 0
  m_CorrespondingSourceObject: {fileID: 0}
  m_PrefabInstance: {fileID: 0}
  m_PrefabAsset: {fileID: 0}
  m_GameObject: {fileID: 0}
  m_Enabled: 1
  m_EditorHideFlags: 0
  m_Script: {fileID: 11500000, guid: 98448c6d71dbb834b90a2b9b1f53e8ce, type: 3}
  m_Name: Salt Trap Settings
  m_EditorClassIdentifier: 
  activePreset: 0
  presets:
  - presetName: Sheila
    trapName: Salt
    uID: 1
    prefab: {fileID: 1776822308024464461, guid: a09fdeb8440c4564281b26e6a2792c48, type: 3}
    sprite: {fileID: 21300000, guid: ed5dac8c85918214ebc81cb08fa93f45, type: 3}
    journalDetailedSprite: {fileID: 21300000, guid: 1dbe51530e8d53342a178accfd32cb95, type: 3}
    description: Damages enemies that walk over it. Vanishes after one use.
    trapType: 1
    trapDetection: 0
    trapLifespan: 1
    usesCount: 2
    lifespanTime: 120
    cost: 3
    damage: 10
    enemyDelay: 0
    placementTime: 2.75
    repulsionOdds: []
    lockTrapOrientation: 1
  - presetName: Baiwei
    trapName: Spikes
    uID: 0
    prefab: {fileID: 0}
    sprite: {fileID: 0}
    journalDetailedSprite: {fileID: 0}
    description: Mildly Damages enemies that walk over it.
    trapType: 0
    trapDetection: 0
    trapLifespan: 1
    usesCount: 2
    lifespanTime: 120
    cost: 0
    damage: 2
    enemyDelay: 0
    placementTime: 0
    repulsionOdds: []
    lockTrapOrientation: 1
  - presetName: Gurin
    trapName: Salt
    uID: 1
    prefab: {fileID: 1776822308024464461, guid: a09fdeb8440c4564281b26e6a2792c48, type: 3}
    sprite: {fileID: 21300000, guid: ed5dac8c85918214ebc81cb08fa93f45, type: 3}
    journalDetailedSprite: {fileID: 0}
    description: Mildly Damages enemies that walk over it.
    trapType: 0
    trapDetection: 0
    trapLifespan: 2
    usesCount: 2
    lifespanTime: 120
    cost: 20
    damage: 0
    enemyDelay: 0
    placementTime: 1
    repulsionOdds:
    - enemySettings: {fileID: 11400000, guid: b6c3555b2eab7c64ab281b3f369b801e, type: 2}
      repulsionOdd: 1
      ignoreRepulsionIfPursuingPlayer: 1
    lockTrapOrientation: 0
