%YAML 1.1
%TAG !u! tag:unity3d.com,2011:
--- !u!114 &11400000
MonoBehaviour:
  m_ObjectHideFlags: 0
  m_CorrespondingSourceObject: {fileID: 0}
  m_PrefabInstance: {fileID: 0}
  m_PrefabAsset: {fileID: 0}
  m_GameObject: {fileID: 0}
  m_Enabled: 1
  m_EditorHideFlags: 0
  m_Script: {fileID: 11500000, guid: 652a3a3b34fa31e40b32c63e51cad5b2, type: 3}
  m_Name: Bonnie_P03
  m_EditorClassIdentifier: 
  optionPreface: About the farm_2
  sentences:
  - sentence: Do you still go to the farm? With your family I mean?
    speaker: 0
    reactionSprite: {fileID: 21300000, guid: 3d4c7e3e2cf19884782bafc1e5c40964, type: 3}
    showEloise: 0
    showSpeaker: 1
  - sentence: Yeah.
    speaker: 4
    reactionSprite: {fileID: 21300000, guid: efefad73f24363b41bc2a6e5c61cdbc2, type: 3}
    showEloise: 0
    showSpeaker: 1
  - sentence: We do, from time to time.
    speaker: 4
    reactionSprite: {fileID: 21300000, guid: efefad73f24363b41bc2a6e5c61cdbc2, type: 3}
    showEloise: 0
    showSpeaker: 1
  - sentence: It feels so much smaller now then when I was little. More nostalgia
      then fun in and of itself.
    speaker: 4
    reactionSprite: {fileID: 21300000, guid: efefad73f24363b41bc2a6e5c61cdbc2, type: 3}
    showEloise: 0
    showSpeaker: 1
  - sentence: We still get ice cream from the little bike carts parked there, or
      the little patio across the street.
    speaker: 4
    reactionSprite: {fileID: 21300000, guid: efefad73f24363b41bc2a6e5c61cdbc2, type: 3}
    showEloise: 0
    showSpeaker: 1
  - sentence: Even if they never have the good flavors anymore.
    speaker: 4
    reactionSprite: {fileID: 21300000, guid: efefad73f24363b41bc2a6e5c61cdbc2, type: 3}
    showEloise: 0
    showSpeaker: 1
  - sentence: No more uncle and cousins to chat with us while we eat all;
    speaker: 4
    reactionSprite: {fileID: 21300000, guid: efefad73f24363b41bc2a6e5c61cdbc2, type: 3}
    showEloise: 0
    showSpeaker: 1
  - sentence: '"Cathleen, when I go put me right there. Me and mum can enjoy the
      pond and you and the girls can come by and get ice cream, give us a visit.
      "'
    speaker: 4
    reactionSprite: {fileID: 21300000, guid: efefad73f24363b41bc2a6e5c61cdbc2, type: 3}
    showEloise: 0
    showSpeaker: 1
  - sentence: 'I mean, he''s not dead, he just moved away to another city. '
    speaker: 4
    reactionSprite: {fileID: 21300000, guid: efefad73f24363b41bc2a6e5c61cdbc2, type: 3}
    showEloise: 0
    showSpeaker: 1
  - sentence: And my cousins all have lives of their own.
    speaker: 4
    reactionSprite: {fileID: 21300000, guid: efefad73f24363b41bc2a6e5c61cdbc2, type: 3}
    showEloise: 0
    showSpeaker: 1
  - sentence: It sounds like a pretty place.
    speaker: 0
    reactionSprite: {fileID: 21300000, guid: efefad73f24363b41bc2a6e5c61cdbc2, type: 3}
    showEloise: 1
    showSpeaker: 1
  - sentence: It is! You should go sometime, if you get the chance.
    speaker: 4
    reactionSprite: {fileID: 21300000, guid: efefad73f24363b41bc2a6e5c61cdbc2, type: 3}
    showEloise: 1
    showSpeaker: 1
  trapToUnlock: {fileID: 0}
  textColor: {r: 0, g: 0, b: 0, a: 1}
  unlockDay: 3
