%YAML 1.1
%TAG !u! tag:unity3d.com,2011:
--- !u!114 &11400000
MonoBehaviour:
  m_ObjectHideFlags: 0
  m_CorrespondingSourceObject: {fileID: 0}
  m_PrefabInstance: {fileID: 0}
  m_PrefabAsset: {fileID: 0}
  m_GameObject: {fileID: 0}
  m_Enabled: 1
  m_EditorHideFlags: 0
  m_Script: {fileID: 11500000, guid: 1aaef90bc69f1634ea1cfd227e77c39c, type: 3}
  m_Name: Smell_Night_4
  m_EditorClassIdentifier: 
  nightSpawnSettings:
  - spawnTime: 0
    spawnQuantity: 3
  - spawnTime: 0.229
    spawnQuantity: 2
  - spawnTime: 0.403
    spawnQuantity: 1
  - spawnTime: 0.626
    spawnQuantity: 2
  - spawnTime: 0.851
    spawnQuantity: 1
