%YAML 1.1
%TAG !u! tag:unity3d.com,2011:
--- !u!1001 &9183204356933309985
PrefabInstance:
  m_ObjectHideFlags: 0
  serializedVersion: 2
  m_Modification:
    m_TransformParent: {fileID: 0}
    m_Modifications:
    - target: {fileID: 20314123259248248, guid: 025d10a040f525a46a3a920c17961fcc, type: 3}
      propertyPath: m_RootOrder
      value: 0
      objectReference: {fileID: 0}
    - target: {fileID: 20314123259248248, guid: 025d10a040f525a46a3a920c17961fcc, type: 3}
      propertyPath: m_LocalPosition.x
      value: 0
      objectReference: {fileID: 0}
    - target: {fileID: 20314123259248248, guid: 025d10a040f525a46a3a920c17961fcc, type: 3}
      propertyPath: m_LocalPosition.y
      value: 0
      objectReference: {fileID: 0}
    - target: {fileID: 20314123259248248, guid: 025d10a040f525a46a3a920c17961fcc, type: 3}
      propertyPath: m_LocalPosition.z
      value: 0
      objectReference: {fileID: 0}
    - target: {fileID: 20314123259248248, guid: 025d10a040f525a46a3a920c17961fcc, type: 3}
      propertyPath: m_LocalRotation.w
      value: 1
      objectReference: {fileID: 0}
    - target: {fileID: 20314123259248248, guid: 025d10a040f525a46a3a920c17961fcc, type: 3}
      propertyPath: m_LocalRotation.x
      value: -0
      objectReference: {fileID: 0}
    - target: {fileID: 20314123259248248, guid: 025d10a040f525a46a3a920c17961fcc, type: 3}
      propertyPath: m_LocalRotation.y
      value: -0
      objectReference: {fileID: 0}
    - target: {fileID: 20314123259248248, guid: 025d10a040f525a46a3a920c17961fcc, type: 3}
      propertyPath: m_LocalRotation.z
      value: -0
      objectReference: {fileID: 0}
    - target: {fileID: 20314123259248248, guid: 025d10a040f525a46a3a920c17961fcc, type: 3}
      propertyPath: m_LocalEulerAnglesHint.x
      value: 0
      objectReference: {fileID: 0}
    - target: {fileID: 20314123259248248, guid: 025d10a040f525a46a3a920c17961fcc, type: 3}
      propertyPath: m_LocalEulerAnglesHint.y
      value: 0
      objectReference: {fileID: 0}
    - target: {fileID: 20314123259248248, guid: 025d10a040f525a46a3a920c17961fcc, type: 3}
      propertyPath: m_LocalEulerAnglesHint.z
      value: 0
      objectReference: {fileID: 0}
    - target: {fileID: 20314123259248251, guid: 025d10a040f525a46a3a920c17961fcc, type: 3}
      propertyPath: npcData
      value: 
      objectReference: {fileID: 11400000, guid: e2d9f400cd955e740b38b6a4512c051a, type: 2}
    - target: {fileID: 20314123259248254, guid: 025d10a040f525a46a3a920c17961fcc, type: 3}
      propertyPath: m_Name
      value: Bonnie
      objectReference: {fileID: 0}
    - target: {fileID: 4952785445593158166, guid: 025d10a040f525a46a3a920c17961fcc, type: 3}
      propertyPath: m_Sprite
      value: 
      objectReference: {fileID: 21300000, guid: 18b7430c49966874aa235ef36fe4a048, type: 3}
    m_RemovedComponents: []
  m_SourcePrefab: {fileID: 100100000, guid: 025d10a040f525a46a3a920c17961fcc, type: 3}
