%YAML 1.1
%TAG !u! tag:unity3d.com,2011:
--- !u!1001 &8771250892016364850
PrefabInstance:
  m_ObjectHideFlags: 0
  serializedVersion: 2
  m_Modification:
    m_TransformParent: {fileID: 0}
    m_Modifications:
    - target: {fileID: 2954695531728743229, guid: e4018f4c7e2fafa4681e2c4e583daeef, type: 3}
      propertyPath: m_Sprite
      value: 
      objectReference: {fileID: 21300000, guid: e540be577318e254eaf663e3aa6eac32, type: 3}
    - target: {fileID: 7922623836332509008, guid: e4018f4c7e2fafa4681e2c4e583daeef, type: 3}
      propertyPath: npcData
      value: 
      objectReference: {fileID: 11400000, guid: 4ae9ae930bdccf348ab594a24825d003, type: 2}
    - target: {fileID: 7922623836332509011, guid: e4018f4c7e2fafa4681e2c4e583daeef, type: 3}
      propertyPath: m_RootOrder
      value: 0
      objectReference: {fileID: 0}
    - target: {fileID: 7922623836332509011, guid: e4018f4c7e2fafa4681e2c4e583daeef, type: 3}
      propertyPath: m_LocalPosition.x
      value: 0
      objectReference: {fileID: 0}
    - target: {fileID: 7922623836332509011, guid: e4018f4c7e2fafa4681e2c4e583daeef, type: 3}
      propertyPath: m_LocalPosition.y
      value: 0
      objectReference: {fileID: 0}
    - target: {fileID: 7922623836332509011, guid: e4018f4c7e2fafa4681e2c4e583daeef, type: 3}
      propertyPath: m_LocalPosition.z
      value: 0
      objectReference: {fileID: 0}
    - target: {fileID: 7922623836332509011, guid: e4018f4c7e2fafa4681e2c4e583daeef, type: 3}
      propertyPath: m_LocalRotation.w
      value: 1
      objectReference: {fileID: 0}
    - target: {fileID: 7922623836332509011, guid: e4018f4c7e2fafa4681e2c4e583daeef, type: 3}
      propertyPath: m_LocalRotation.x
      value: -0
      objectReference: {fileID: 0}
    - target: {fileID: 7922623836332509011, guid: e4018f4c7e2fafa4681e2c4e583daeef, type: 3}
      propertyPath: m_LocalRotation.y
      value: -0
      objectReference: {fileID: 0}
    - target: {fileID: 7922623836332509011, guid: e4018f4c7e2fafa4681e2c4e583daeef, type: 3}
      propertyPath: m_LocalRotation.z
      value: -0
      objectReference: {fileID: 0}
    - target: {fileID: 7922623836332509011, guid: e4018f4c7e2fafa4681e2c4e583daeef, type: 3}
      propertyPath: m_LocalEulerAnglesHint.x
      value: 0
      objectReference: {fileID: 0}
    - target: {fileID: 7922623836332509011, guid: e4018f4c7e2fafa4681e2c4e583daeef, type: 3}
      propertyPath: m_LocalEulerAnglesHint.y
      value: 0
      objectReference: {fileID: 0}
    - target: {fileID: 7922623836332509011, guid: e4018f4c7e2fafa4681e2c4e583daeef, type: 3}
      propertyPath: m_LocalEulerAnglesHint.z
      value: 0
      objectReference: {fileID: 0}
    - target: {fileID: 7922623836332509013, guid: e4018f4c7e2fafa4681e2c4e583daeef, type: 3}
      propertyPath: m_Name
      value: Smurl
      objectReference: {fileID: 0}
    m_RemovedComponents: []
  m_SourcePrefab: {fileID: 100100000, guid: e4018f4c7e2fafa4681e2c4e583daeef, type: 3}
