%YAML 1.1
%TAG !u! tag:unity3d.com,2011:
--- !u!114 &11400000
MonoBehaviour:
  m_ObjectHideFlags: 0
  m_CorrespondingSourceObject: {fileID: 0}
  m_PrefabInstance: {fileID: 0}
  m_PrefabAsset: {fileID: 0}
  m_GameObject: {fileID: 0}
  m_Enabled: 1
  m_EditorHideFlags: 0
  m_Script: {fileID: 11500000, guid: 652a3a3b34fa31e40b32c63e51cad5b2, type: 3}
  m_Name: Jenna_P02
  m_EditorClassIdentifier: 
  optionPreface: Jenna's Family
  sentences:
  - sentence: Did you like seeing your mum?
    speaker: 0
    reactionSprite: {fileID: 21300000, guid: 8bcb5d77a97144643a02c098a67bbf0a, type: 3}
    showEloise: 1
    showSpeaker: 0
  - sentence: Of course!
    speaker: 5
    reactionSprite: {fileID: 21300000, guid: 8bcb5d77a97144643a02c098a67bbf0a, type: 3}
    showEloise: 1
    showSpeaker: 1
  - sentence: That is to say...
    speaker: 5
    reactionSprite: {fileID: 21300000, guid: aed485d3bea6cf94393a866c0b510407, type: 3}
    showEloise: 1
    showSpeaker: 1
  - sentence: 'No, no. '
    speaker: 5
    reactionSprite: {fileID: 21300000, guid: 8bcb5d77a97144643a02c098a67bbf0a, type: 3}
    showEloise: 1
    showSpeaker: 1
  - sentence: 'Of course, I enjoyed seeing her. '
    speaker: 5
    reactionSprite: {fileID: 21300000, guid: c52a472363f456c4d95ec44fc5e0c6a7, type: 3}
    showEloise: 1
    showSpeaker: 1
  - sentence: 'I don''t think I''d have wanted to stay for much longer then I did.
      Not much going on up there.   '
    speaker: 5
    reactionSprite: {fileID: 21300000, guid: 8bcb5d77a97144643a02c098a67bbf0a, type: 3}
    showEloise: 1
    showSpeaker: 1
  - sentence: 'You spend too much time away from people and you start to turn into
      someone you don''t recognize anymore.   '
    speaker: 5
    reactionSprite: {fileID: 21300000, guid: 8bcb5d77a97144643a02c098a67bbf0a, type: 3}
    showEloise: 1
    showSpeaker: 1
  - sentence: I'll take the city any day.
    speaker: 5
    reactionSprite: {fileID: 21300000, guid: 8bcb5d77a97144643a02c098a67bbf0a, type: 3}
    showEloise: 1
    showSpeaker: 1
  - sentence: Besides, I'd have missed all of you!
    speaker: 5
    reactionSprite: {fileID: 21300000, guid: 8bcb5d77a97144643a02c098a67bbf0a, type: 3}
    showEloise: 1
    showSpeaker: 1
  trapToUnlock: {fileID: 0}
  textColor: {r: 0, g: 0, b: 0, a: 1}
  unlockDay: 2
