%YAML 1.1
%TAG !u! tag:unity3d.com,2011:
--- !u!114 &11400000
MonoBehaviour:
  m_ObjectHideFlags: 0
  m_CorrespondingSourceObject: {fileID: 0}
  m_PrefabInstance: {fileID: 0}
  m_PrefabAsset: {fileID: 0}
  m_GameObject: {fileID: 0}
  m_Enabled: 1
  m_EditorHideFlags: 0
  m_Script: {fileID: 11500000, guid: 652a3a3b34fa31e40b32c63e51cad5b2, type: 3}
  m_Name: Salt_J_NPC
  m_EditorClassIdentifier: 
  optionPreface: On Salt Circles
  sentences:
  - sentence: Why do ghosts hate salt circles?
    speaker: 0
    reactionSprite: {fileID: 21300000, guid: 8bcb5d77a97144643a02c098a67bbf0a, type: 3}
    showEloise: 1
    showSpeaker: 0
  - sentence: Salt circles, huh?
    speaker: 5
    reactionSprite: {fileID: 21300000, guid: 8bcb5d77a97144643a02c098a67bbf0a, type: 3}
    showEloise: 1
    showSpeaker: 1
  - sentence: "Circles are pretty fundamental, don\u2019t you think?"
    speaker: 5
    reactionSprite: {fileID: 21300000, guid: 8bcb5d77a97144643a02c098a67bbf0a, type: 3}
    showEloise: 1
    showSpeaker: 1
  - sentence: The movement of the sun, the cycle of the seasons, clock hands,
    speaker: 5
    reactionSprite: {fileID: 21300000, guid: 8bcb5d77a97144643a02c098a67bbf0a, type: 3}
    showEloise: 1
    showSpeaker: 1
  - sentence: "It\u2019s not super surprising that we think so highly of the power
      of circles."
    speaker: 5
    reactionSprite: {fileID: 21300000, guid: 8bcb5d77a97144643a02c098a67bbf0a, type: 3}
    showEloise: 1
    showSpeaker: 1
  - sentence: "They\u2019re sort of like\u2026 stability."
    speaker: 5
    reactionSprite: {fileID: 21300000, guid: c52a472363f456c4d95ec44fc5e0c6a7, type: 3}
    showEloise: 1
    showSpeaker: 1
  - sentence: As for the salt,
    speaker: 5
    reactionSprite: {fileID: 21300000, guid: 8bcb5d77a97144643a02c098a67bbf0a, type: 3}
    showEloise: 1
    showSpeaker: 1
  - sentence: ' I could see some aspect of protection there. '
    speaker: 5
    reactionSprite: {fileID: 21300000, guid: 8bcb5d77a97144643a02c098a67bbf0a, type: 3}
    showEloise: 1
    showSpeaker: 1
  - sentence: Symbolically and literally.
    speaker: 5
    reactionSprite: {fileID: 21300000, guid: 8bcb5d77a97144643a02c098a67bbf0a, type: 3}
    showEloise: 1
    showSpeaker: 1
  - sentence: We used it to purify and cure food for so long. Disinfect things.
    speaker: 5
    reactionSprite: {fileID: 21300000, guid: 8bcb5d77a97144643a02c098a67bbf0a, type: 3}
    showEloise: 1
    showSpeaker: 1
  - sentence: Does that make sense, Eloise?
    speaker: 5
    reactionSprite: {fileID: 21300000, guid: 8bcb5d77a97144643a02c098a67bbf0a, type: 3}
    showEloise: 1
    showSpeaker: 1
  - sentence: "Hmm\u2026"
    speaker: 0
    reactionSprite: {fileID: 21300000, guid: 8bcb5d77a97144643a02c098a67bbf0a, type: 3}
    showEloise: 1
    showSpeaker: 1
  trapToUnlock: {fileID: 11400000, guid: fe38a2c4388c18f46ba81144cf6ff7c7, type: 2}
  textColor: {r: 0, g: 0, b: 0, a: 1}
  unlockDay: 0
