%YAML 1.1
%TAG !u! tag:unity3d.com,2011:
--- !u!114 &11400000
MonoBehaviour:
  m_ObjectHideFlags: 0
  m_CorrespondingSourceObject: {fileID: 0}
  m_PrefabInstance: {fileID: 0}
  m_PrefabAsset: {fileID: 0}
  m_GameObject: {fileID: 0}
  m_Enabled: 1
  m_EditorHideFlags: 0
  m_Script: {fileID: 11500000, guid: 0547dc4e54a234a469f777c2c1d1b66b, type: 3}
  m_Name: Critter Enemy Settings
  m_EditorClassIdentifier: 
  activePreset: 0
  presets:
  - presetName: Sheila
    enemyName: Critter
    enemySprite: {fileID: 21300000, guid: a360308697d6cf646a2eb4c683791f6a, type: 3}
    enemyDescription: Animal like creatures that hunt primarily via smell.
    movementSpeed: 1.14
    turnSlowdownMultiplier: 4
    pursuePlayerSpeedMultiplier: 4.72
    postAttackSpeedMultiplier: 0.995
    maxHealth: 5
    attackDamage: 3
    maxPursueDistance: 7
    enableMaxPursueDistanceGizmo: 0
    maxPursueDistanceGizmoColor: {r: 1, g: 1, b: 1, a: 1}
    currencyDrop: 30
    enemySpawnSettings:
    - {fileID: 11400000, guid: 687a833b8fb3bf3488b2e65a7a9d4093, type: 2}
    - {fileID: 11400000, guid: cf5e84d21d375a14b8f91dbf2f5381b6, type: 2}
    - {fileID: 11400000, guid: b1021cb57aa6b884e91ac707ac13b231, type: 2}
    - {fileID: 11400000, guid: 297b8653801a02f49896b3e95b5d6bad, type: 2}
    - {fileID: 11400000, guid: 5a42c9529081cb54484a297007c5734c, type: 2}
    - {fileID: 11400000, guid: 673db976e4ddfc54e93f4f163935ee22, type: 2}
    smellMultiplier: 3.46
    pursueSmellSpeedMultiplier: 3.4
    hearingStrength: 0
    maxSoundTimeToPursuePlayer: 6.2
    pursueSoundSpeedMultiplier: 1
    minSoundPlayerPursueDistance: 4.15
    enableMinSoundPlayerPursueDistanceGizmo: 0
    minSoundPlayerPursueDistanceGizmoColor: {r: 1, g: 1, b: 1, a: 1}
    repulsionPursueCooldown: 0
    stayInPatrolArea: 0
    enableFootstepsParticles: 1
    enableSniffingParticles: 1
    enableTransparency: 1
    enableDebugGizmos: 1
    gizmosColor: {r: 0.66978157, g: 1, b: 0.41176474, a: 1}
  - presetName: Baiwei
    enemyName: 
    enemySprite: {fileID: 0}
    enemyDescription: 
    movementSpeed: 2
    turnSlowdownMultiplier: 4
    pursuePlayerSpeedMultiplier: 1.35
    postAttackSpeedMultiplier: 0.65
    maxHealth: 10
    attackDamage: 2
    maxPursueDistance: 7
    enableMaxPursueDistanceGizmo: 0
    maxPursueDistanceGizmoColor: {r: 1, g: 1, b: 1, a: 1}
    currencyDrop: 1
    enemySpawnSettings: []
    smellMultiplier: 3.95
    pursueSmellSpeedMultiplier: 2.55
    hearingStrength: 0
    maxSoundTimeToPursuePlayer: 10
    pursueSoundSpeedMultiplier: 1
    minSoundPlayerPursueDistance: 6
    enableMinSoundPlayerPursueDistanceGizmo: 0
    minSoundPlayerPursueDistanceGizmoColor: {r: 1, g: 1, b: 1, a: 1}
    repulsionPursueCooldown: 0
    stayInPatrolArea: 0
    enableFootstepsParticles: 0
    enableSniffingParticles: 0
    enableTransparency: 1
    enableDebugGizmos: 0
    gizmosColor: {r: 1, g: 1, b: 1, a: 1}
  - presetName: Debugging
    enemyName: Smell
    enemySprite: {fileID: 0}
    enemyDescription: 
    movementSpeed: 1.14
    turnSlowdownMultiplier: 4
    pursuePlayerSpeedMultiplier: 4.37
    postAttackSpeedMultiplier: 0.995
    maxHealth: 1
    attackDamage: 1
    maxPursueDistance: 8
    enableMaxPursueDistanceGizmo: 0
    maxPursueDistanceGizmoColor: {r: 1, g: 1, b: 1, a: 1}
    currencyDrop: 5
    enemySpawnSettings:
    - {fileID: 11400000, guid: 8bd81e3c012a02041812c004dd3f1d3a, type: 2}
    - {fileID: 11400000, guid: cf5e84d21d375a14b8f91dbf2f5381b6, type: 2}
    smellMultiplier: 3.46
    pursueSmellSpeedMultiplier: 3.4
    hearingStrength: 0
    maxSoundTimeToPursuePlayer: 6.2
    pursueSoundSpeedMultiplier: 1
    minSoundPlayerPursueDistance: 6
    enableMinSoundPlayerPursueDistanceGizmo: 0
    minSoundPlayerPursueDistanceGizmoColor: {r: 1, g: 1, b: 1, a: 1}
    repulsionPursueCooldown: 3
    stayInPatrolArea: 1
    enableFootstepsParticles: 0
    enableSniffingParticles: 0
    enableTransparency: 0
    enableDebugGizmos: 1
    gizmosColor: {r: 0.56562877, g: 1, b: 0.3820755, a: 1}
