%YAML 1.1
%TAG !u! tag:unity3d.com,2011:
--- !u!114 &11400000
MonoBehaviour:
  m_ObjectHideFlags: 0
  m_CorrespondingSourceObject: {fileID: 0}
  m_PrefabInstance: {fileID: 0}
  m_PrefabAsset: {fileID: 0}
  m_GameObject: {fileID: 0}
  m_Enabled: 1
  m_EditorHideFlags: 0
  m_Script: {fileID: 11500000, guid: cf2b1c42b8d0143438d7496bcde63f81, type: 3}
  m_Name: Player Settings
  m_EditorClassIdentifier: 
  activePreset: 0
  presets:
  - presetName: Sheila
    walkingSpeed: 4.5
    tiptoeSpeed: 1.28
    rotationSpeed: 10
    maxPlayerHealth: 10
    takenDamageCooldown: 0.75
    enableFootstepsParticles: 1
    enableSmellParticles: 1
    trapsStock: 0800000008000000
  - presetName: Debugging
    walkingSpeed: 4.4
    tiptoeSpeed: 1
    rotationSpeed: 10
    maxPlayerHealth: 1
    takenDamageCooldown: 0
    enableFootstepsParticles: 1
    enableSmellParticles: 1
    trapsStock: 0300000003000000
  - presetName: Baiwei
    walkingSpeed: 2
    tiptoeSpeed: 0.5
    rotationSpeed: 16
    maxPlayerHealth: 10
    takenDamageCooldown: 0
    enableFootstepsParticles: 1
    enableSmellParticles: 1
    trapsStock: 0300000003000000
