%YAML 1.1
%TAG !u! tag:unity3d.com,2011:
--- !u!114 &11400000
MonoBehaviour:
  m_ObjectHideFlags: 0
  m_CorrespondingSourceObject: {fileID: 0}
  m_PrefabInstance: {fileID: 0}
  m_PrefabAsset: {fileID: 0}
  m_GameObject: {fileID: 0}
  m_Enabled: 1
  m_EditorHideFlags: 0
  m_Script: {fileID: 11500000, guid: 652a3a3b34fa31e40b32c63e51cad5b2, type: 3}
  m_Name: HouseSp_S_NPC
  m_EditorClassIdentifier: 
  optionPreface: About Household Spirits
  sentences:
  - sentence: "What\u2019s a brownie?"
    speaker: 0
    reactionSprite: {fileID: 21300000, guid: b06959cfdca53f543ab7a2e2f071cdfe, type: 3}
    showEloise: 1
    showSpeaker: 1
  - sentence: The creature, not the food.
    speaker: 0
    reactionSprite: {fileID: 21300000, guid: b06959cfdca53f543ab7a2e2f071cdfe, type: 3}
    showEloise: 1
    showSpeaker: 1
  - sentence: A brownie, eh?
    speaker: 3
    reactionSprite: {fileID: 21300000, guid: b06959cfdca53f543ab7a2e2f071cdfe, type: 3}
    showEloise: 1
    showSpeaker: 1
  - sentence: They were house dwelling spirits.
    speaker: 3
    reactionSprite: {fileID: 21300000, guid: b06959cfdca53f543ab7a2e2f071cdfe, type: 3}
    showEloise: 1
    showSpeaker: 1
  - sentence: 'Little folk, who often cleaned up after the owners of the house if
      they were treated well.  '
    speaker: 3
    reactionSprite: {fileID: 21300000, guid: b06959cfdca53f543ab7a2e2f071cdfe, type: 3}
    showEloise: 1
    showSpeaker: 1
  - sentence: 'Left offerings and the like.  '
    speaker: 3
    reactionSprite: {fileID: 21300000, guid: b06959cfdca53f543ab7a2e2f071cdfe, type: 3}
    showEloise: 1
    showSpeaker: 1
  - sentence: 'Or caused chaos in the house if they were disrespected.  '
    speaker: 3
    reactionSprite: {fileID: 21300000, guid: b06959cfdca53f543ab7a2e2f071cdfe, type: 3}
    showEloise: 1
    showSpeaker: 1
  - sentence: "There\u2019s a whole subset of fae folk quite like them  "
    speaker: 3
    reactionSprite: {fileID: 21300000, guid: b06959cfdca53f543ab7a2e2f071cdfe, type: 3}
    showEloise: 1
    showSpeaker: 1
  - sentence: 'House spirts, goblins, the little folk.  '
    speaker: 3
    reactionSprite: {fileID: 21300000, guid: b06959cfdca53f543ab7a2e2f071cdfe, type: 3}
    showEloise: 1
    showSpeaker: 1
  - sentence: "They\u2019ve gone my many names.  "
    speaker: 3
    reactionSprite: {fileID: 21300000, guid: b06959cfdca53f543ab7a2e2f071cdfe, type: 3}
    showEloise: 1
    showSpeaker: 1
  - sentence: 'There are more types of spirits like that?  '
    speaker: 0
    reactionSprite: {fileID: 21300000, guid: b06959cfdca53f543ab7a2e2f071cdfe, type: 3}
    showEloise: 1
    showSpeaker: 1
  - sentence: 'Oh, most certainly!  '
    speaker: 3
    reactionSprite: {fileID: 21300000, guid: b06959cfdca53f543ab7a2e2f071cdfe, type: 3}
    showEloise: 1
    showSpeaker: 1
  - sentence: 'Kobolds, Domovoy,  '
    speaker: 3
    reactionSprite: {fileID: 21300000, guid: b06959cfdca53f543ab7a2e2f071cdfe, type: 3}
    showEloise: 1
    showSpeaker: 1
  - sentence: "In Iceland there\u2019s a whole cast of winter characters called the
      Yule Lads, that play tricks on households come Christmas.  "
    speaker: 3
    reactionSprite: {fileID: 21300000, guid: b06959cfdca53f543ab7a2e2f071cdfe, type: 3}
    showEloise: 1
    showSpeaker: 1
  - sentence: "It\u2019s a very old belief.  "
    speaker: 3
    reactionSprite: {fileID: 21300000, guid: b06959cfdca53f543ab7a2e2f071cdfe, type: 3}
    showEloise: 1
    showSpeaker: 1
  - sentence: "The appeasement of spirits, and the desire to keep one\u2019s home
      all in order.  "
    speaker: 3
    reactionSprite: {fileID: 21300000, guid: b06959cfdca53f543ab7a2e2f071cdfe, type: 3}
    showEloise: 1
    showSpeaker: 1
  - sentence: 'I bet they can hear us super good with those big dumb ears.  '
    speaker: 2
    reactionSprite: {fileID: 21300000, guid: 23c0de196de092141abea3b36e5a976a, type: 3}
    showEloise: 1
    showSpeaker: 1
  trapToUnlock: {fileID: 0}
  textColor: {r: 0, g: 0, b: 0, a: 1}
  unlockDay: 1
