%YAML 1.1
%TAG !u! tag:unity3d.com,2011:
--- !u!114 &11400000
MonoBehaviour:
  m_ObjectHideFlags: 0
  m_CorrespondingSourceObject: {fileID: 0}
  m_PrefabInstance: {fileID: 0}
  m_PrefabAsset: {fileID: 0}
  m_GameObject: {fileID: 0}
  m_Enabled: 1
  m_EditorHideFlags: 0
  m_Script: {fileID: 11500000, guid: 652a3a3b34fa31e40b32c63e51cad5b2, type: 3}
  m_Name: Iron_S_NPC
  m_EditorClassIdentifier: 
  optionPreface: Metal and the Fae
  sentences:
  - sentence: What should I do if the fairies scare me more then the witches do?
    speaker: 0
    reactionSprite: {fileID: 21300000, guid: b06959cfdca53f543ab7a2e2f071cdfe, type: 3}
    showEloise: 1
    showSpeaker: 0
  - sentence: <chuckles>
    speaker: 3
    reactionSprite: {fileID: 21300000, guid: b06959cfdca53f543ab7a2e2f071cdfe, type: 3}
    showEloise: 1
    showSpeaker: 1
  - sentence: 'What sort of stories has your mum been reading you Eloise?   '
    speaker: 3
    reactionSprite: {fileID: 21300000, guid: b06959cfdca53f543ab7a2e2f071cdfe, type: 3}
    showEloise: 1
    showSpeaker: 1
  - sentence: 'Must be some old ones if its got you worried about the fair folk.  '
    speaker: 3
    reactionSprite: {fileID: 21300000, guid: b06959cfdca53f543ab7a2e2f071cdfe, type: 3}
    showEloise: 1
    showSpeaker: 1
  - sentence: "I can\u2019t say I blame you."
    speaker: 3
    reactionSprite: {fileID: 21300000, guid: b06959cfdca53f543ab7a2e2f071cdfe, type: 3}
    showEloise: 1
    showSpeaker: 1
  - sentence: 'You think fairies are scary?  '
    speaker: 0
    reactionSprite: {fileID: 21300000, guid: b06959cfdca53f543ab7a2e2f071cdfe, type: 3}
    showEloise: 1
    showSpeaker: 1
  - sentence: Oh, certainly!
    speaker: 3
    reactionSprite: {fileID: 21300000, guid: b06959cfdca53f543ab7a2e2f071cdfe, type: 3}
    showEloise: 1
    showSpeaker: 1
  - sentence: 'Nasty little buggers historically.  '
    speaker: 3
    reactionSprite: {fileID: 21300000, guid: b06959cfdca53f543ab7a2e2f071cdfe, type: 3}
    showEloise: 1
    showSpeaker: 1
  - sentence: 'The small folk, the seelie court and the like.  '
    speaker: 3
    reactionSprite: {fileID: 21300000, guid: b06959cfdca53f543ab7a2e2f071cdfe, type: 3}
    showEloise: 1
    showSpeaker: 1
  - sentence: "Tell you what Eloise, why don\u2019t you try carrying something metal
      about with you if you\u2019re scared.  "
    speaker: 3
    reactionSprite: {fileID: 0}
    showEloise: 1
    showSpeaker: 1
  - sentence: Iron preferably.
    speaker: 3
    reactionSprite: {fileID: 21300000, guid: b06959cfdca53f543ab7a2e2f071cdfe, type: 3}
    showEloise: 1
    showSpeaker: 1
  - sentence: 'The little folk are meant to be allergic to it. Maybe their just allergic
      to modernity.  '
    speaker: 3
    reactionSprite: {fileID: 21300000, guid: b06959cfdca53f543ab7a2e2f071cdfe, type: 3}
    showEloise: 1
    showSpeaker: 1
  - sentence: Modernity?
    speaker: 0
    reactionSprite: {fileID: 21300000, guid: b06959cfdca53f543ab7a2e2f071cdfe, type: 3}
    showEloise: 1
    showSpeaker: 1
  - sentence: "Hmm\u2026"
    speaker: 3
    reactionSprite: {fileID: 21300000, guid: b06959cfdca53f543ab7a2e2f071cdfe, type: 3}
    showEloise: 1
    showSpeaker: 1
  - sentence: 'Humans building things, shaping things with iron and tools? Metallurgy
      and smog and such. They certainly never liked us tampering with nature past
      its means to recover.  '
    speaker: 3
    reactionSprite: {fileID: 21300000, guid: b06959cfdca53f543ab7a2e2f071cdfe, type: 3}
    showEloise: 1
    showSpeaker: 1
  - sentence: "I\u2019ll try that, thanks!"
    speaker: 0
    reactionSprite: {fileID: 21300000, guid: 326c8eb8f34c2014a9f46255e65afae3, type: 3}
    showEloise: 0
    showSpeaker: 1
  trapToUnlock: {fileID: 11400000, guid: 15dd3f1f3b0cf2f4a9a9177bf20158dd, type: 2}
  textColor: {r: 0, g: 0, b: 0, a: 1}
  unlockDay: 2
