%YAML 1.1
%TAG !u! tag:unity3d.com,2011:
--- !u!114 &11400000
MonoBehaviour:
  m_ObjectHideFlags: 0
  m_CorrespondingSourceObject: {fileID: 0}
  m_PrefabInstance: {fileID: 0}
  m_PrefabAsset: {fileID: 0}
  m_GameObject: {fileID: 0}
  m_Enabled: 1
  m_EditorHideFlags: 0
  m_Script: {fileID: 11500000, guid: 652a3a3b34fa31e40b32c63e51cad5b2, type: 3}
  m_Name: Smurl_P03
  m_EditorClassIdentifier: 
  optionPreface: On the Dark Forest
  sentences:
  - sentence: What happened in the Dark Forest Professor?
    speaker: 0
    reactionSprite: {fileID: 21300000, guid: b06959cfdca53f543ab7a2e2f071cdfe, type: 3}
    showEloise: 1
    showSpeaker: 0
  - sentence: 'Very direct today, eh?  '
    speaker: 3
    reactionSprite: {fileID: 21300000, guid: b06959cfdca53f543ab7a2e2f071cdfe, type: 3}
    showEloise: 1
    showSpeaker: 1
  - sentence: "Suffice to say, when I was younger, I had a penchant for exploring
      \u201Chaunted\u201D places. Never saw a thing. Not before that time.  "
    speaker: 3
    reactionSprite: {fileID: 21300000, guid: b06959cfdca53f543ab7a2e2f071cdfe, type: 3}
    showEloise: 1
    showSpeaker: 1
  - sentence: 'It was a family vacation, but I was lucky enough to get some time
      alone to indulge in visiting schwarzwald.  '
    speaker: 3
    reactionSprite: {fileID: 21300000, guid: b06959cfdca53f543ab7a2e2f071cdfe, type: 3}
    showEloise: 0
    showSpeaker: 1
  - sentence: Well I, Um-
    speaker: 3
    reactionSprite: {fileID: 21300000, guid: b06959cfdca53f543ab7a2e2f071cdfe, type: 3}
    showEloise: 0
    showSpeaker: 1
  - sentence: I found a bit of lost camera equipment.
    speaker: 3
    reactionSprite: {fileID: 21300000, guid: b06959cfdca53f543ab7a2e2f071cdfe, type: 3}
    showEloise: 0
    showSpeaker: 1
  - sentence: That's it?
    speaker: 0
    reactionSprite: {fileID: 21300000, guid: b06959cfdca53f543ab7a2e2f071cdfe, type: 3}
    showEloise: 1
    showSpeaker: 1
  - sentence: <Chuckles>
    speaker: 3
    reactionSprite: {fileID: 21300000, guid: b06959cfdca53f543ab7a2e2f071cdfe, type: 3}
    showEloise: 1
    showSpeaker: 1
  - sentence: 'A couple years before that, I had been visiting the Hoia-Baciu-  '
    speaker: 3
    reactionSprite: {fileID: 21300000, guid: b06959cfdca53f543ab7a2e2f071cdfe, type: 3}
    showEloise: 1
    showSpeaker: 1
  - sentence: That's in Romania
    speaker: 2
    reactionSprite: {fileID: 21300000, guid: 4ca073b35014a5c4cbed54facf5eaf7f, type: 3}
    showEloise: 1
    showSpeaker: 1
  - sentence: That's in Romania!
    speaker: 0
    reactionSprite: {fileID: 21300000, guid: b06959cfdca53f543ab7a2e2f071cdfe, type: 3}
    showEloise: 1
    showSpeaker: 0
  - sentence: I-
    speaker: 3
    reactionSprite: {fileID: 21300000, guid: b06959cfdca53f543ab7a2e2f071cdfe, type: 3}
    showEloise: 1
    showSpeaker: 1
  - sentence: 'Yes. '
    speaker: 3
    reactionSprite: {fileID: 21300000, guid: b06959cfdca53f543ab7a2e2f071cdfe, type: 3}
    showEloise: 1
    showSpeaker: 1
  - sentence: Yes it is.
    speaker: 3
    reactionSprite: {fileID: 21300000, guid: b06959cfdca53f543ab7a2e2f071cdfe, type: 3}
    showEloise: 1
    showSpeaker: 1
  - sentence: 'Misplaced a lens cap for my camera,  '
    speaker: 3
    reactionSprite: {fileID: 21300000, guid: b06959cfdca53f543ab7a2e2f071cdfe, type: 3}
    showEloise: 0
    showSpeaker: 1
  - sentence: 'and when I was doing a shoot in schwarzwald I found a lens cap on
      the ground.  '
    speaker: 3
    reactionSprite: {fileID: 21300000, guid: b06959cfdca53f543ab7a2e2f071cdfe, type: 3}
    showEloise: 0
    showSpeaker: 1
  - sentence: 'Strangest thing. Same make and model as the camera I had been using
      a couple years ago.  '
    speaker: 3
    reactionSprite: {fileID: 21300000, guid: b06959cfdca53f543ab7a2e2f071cdfe, type: 3}
    showEloise: 0
    showSpeaker: 1
  - sentence: 'I was using something different by that time. Didn''t even have the
      old one with me for the trip. I mean why would I?  '
    speaker: 3
    reactionSprite: {fileID: 21300000, guid: b06959cfdca53f543ab7a2e2f071cdfe, type: 3}
    showEloise: 0
    showSpeaker: 1
  - sentence: That's funny.
    speaker: 0
    reactionSprite: {fileID: 21300000, guid: b06959cfdca53f543ab7a2e2f071cdfe, type: 3}
    showEloise: 1
    showSpeaker: 1
  - sentence: You think so?
    speaker: 3
    reactionSprite: {fileID: 21300000, guid: b06959cfdca53f543ab7a2e2f071cdfe, type: 3}
    showEloise: 1
    showSpeaker: 1
  - sentence: Coincidence I'm sure, but it's a funny little story, right?
    speaker: 3
    reactionSprite: {fileID: 21300000, guid: b06959cfdca53f543ab7a2e2f071cdfe, type: 3}
    showEloise: 1
    showSpeaker: 1
  - sentence: Not a coincidence.
    speaker: 2
    reactionSprite: {fileID: 21300000, guid: abc656f52c917e549a992dad63525b38, type: 3}
    showEloise: 0
    showSpeaker: 1
  trapToUnlock: {fileID: 0}
  textColor: {r: 0, g: 0, b: 0, a: 1}
  unlockDay: 2
