%YAML 1.1
%TAG !u! tag:unity3d.com,2011:
--- !u!114 &11400000
MonoBehaviour:
  m_ObjectHideFlags: 0
  m_CorrespondingSourceObject: {fileID: 0}
  m_PrefabInstance: {fileID: 0}
  m_PrefabAsset: {fileID: 0}
  m_GameObject: {fileID: 0}
  m_Enabled: 1
  m_EditorHideFlags: 0
  m_Script: {fileID: 11500000, guid: 10ee8f3fba35a6d448b4c31bc9b15a06, type: 3}
  m_Name: Player_Idle
  m_EditorClassIdentifier: 
  frames:
  - {fileID: 21300000, guid: 94d4578ed10631649812aa3410ce475a, type: 3}
  - {fileID: 21300000, guid: a24194ac23ac5e140b70bd257af06435, type: 3}
  - {fileID: 21300000, guid: 8404f3c16cb881440b5cbe2dbd96188c, type: 3}
  - {fileID: 21300000, guid: 1c56d40f8f92b92459b95949d9dc3042, type: 3}
  - {fileID: 21300000, guid: 7a989c58ed81086418d030affd8786d5, type: 3}
  - {fileID: 21300000, guid: 8d4994453bbde1346a5192b8926a16c3, type: 3}
  - {fileID: 21300000, guid: 8af67d0771ed0dd46b08b6c82a7d66b9, type: 3}
  - {fileID: 21300000, guid: 10e03eedd6bdd464c99deb982d1be862, type: 3}
  - {fileID: 21300000, guid: d99eb9dc08ec02148a4352f681419f8d, type: 3}
  - {fileID: 21300000, guid: b8b6b2182ec87fb4a8c3719265e4cabd, type: 3}
  - {fileID: 21300000, guid: f5174dbee813ca04ba4c7f3079fe7070, type: 3}
  - {fileID: 21300000, guid: d8643c22818585b40ad05e67c7d2cbcb, type: 3}
  - {fileID: 21300000, guid: 8976fe41e324c9b4b963b5e7c24fce67, type: 3}
  - {fileID: 21300000, guid: 725123170c7d4354f97bb9c1ed9c2a8e, type: 3}
  - {fileID: 21300000, guid: 4656e081b178af24a8b20cb1dfd2f149, type: 3}
  - {fileID: 21300000, guid: d8bdbfe4fd741964493374feb6df17d5, type: 3}
  - {fileID: 21300000, guid: 9a461dd032169b14a87ecb616eb41273, type: 3}
  - {fileID: 21300000, guid: ff35ee732fff4144984a1ee3da0b36f3, type: 3}
  - {fileID: 21300000, guid: 1a109829cd6dee946aef09807944112b, type: 3}
  - {fileID: 21300000, guid: bcbb08af8c1f386419ad31ea6d65820a, type: 3}
  - {fileID: 21300000, guid: 4bf1a907724aa1d47a4fc20dcd594d0f, type: 3}
  - {fileID: 21300000, guid: 22ed14708c07fab4498f91f0da38533b, type: 3}
  - {fileID: 21300000, guid: 8581c8e2f91b08d42864e66054344db8, type: 3}
  - {fileID: 21300000, guid: 2805091d13f370a498c85eb55eb89c86, type: 3}
  - {fileID: 21300000, guid: cb9e2a9a212f99740a783f8e3cd83e73, type: 3}
  - {fileID: 21300000, guid: 2bb77bdef696e9b4dad6c73005b4add8, type: 3}
  - {fileID: 21300000, guid: 6a3fdde60db74f544aff49cd1275382f, type: 3}
  - {fileID: 21300000, guid: a8efbace8ceb10f42b2f970202c1e6c4, type: 3}
  - {fileID: 21300000, guid: 21917b7acc454fa418672fb78b47d39b, type: 3}
  - {fileID: 21300000, guid: e7af5cd5b8331d94b8f6f61fe101bf5e, type: 3}
  - {fileID: 21300000, guid: b5df04cbcac1e2f4199222f08b2c2ce9, type: 3}
  - {fileID: 21300000, guid: 484411152c436bf48bee65afadab3fe9, type: 3}
  - {fileID: 21300000, guid: d98ca24cd30edfb41a549e49b81f0bbd, type: 3}
  - {fileID: 21300000, guid: 3611c7a01e38b344283c5a4a541da778, type: 3}
  - {fileID: 21300000, guid: c08ca0e7d001aca4581ced8b3e05b906, type: 3}
  - {fileID: 21300000, guid: 2fa3c10820d925f4abfb41869181528c, type: 3}
  - {fileID: 21300000, guid: 0f1d4dfc1730b4f4ca1e761abb11a77a, type: 3}
  - {fileID: 21300000, guid: 077a4e7daade63a40a39dd7590bcafcd, type: 3}
  - {fileID: 21300000, guid: a8eae457bdca75b46a16ba52dcc1e796, type: 3}
  - {fileID: 21300000, guid: 9ddcbfc8640d0514abc96f2eb2c306e6, type: 3}
  useDefaultFrameRate: 1
  animationSpeed: 1
  frameRate: 24
  loop: 1
