%YAML 1.1
%TAG !u! tag:unity3d.com,2011:
--- !u!114 &11400000
MonoBehaviour:
  m_ObjectHideFlags: 0
  m_CorrespondingSourceObject: {fileID: 0}
  m_PrefabInstance: {fileID: 0}
  m_PrefabAsset: {fileID: 0}
  m_GameObject: {fileID: 0}
  m_Enabled: 1
  m_EditorHideFlags: 0
  m_Script: {fileID: 11500000, guid: 10ee8f3fba35a6d448b4c31bc9b15a06, type: 3}
  m_Name: Player_PlacingTrap
  m_EditorClassIdentifier: 
  frames:
  - {fileID: 21300000, guid: eeae9e8f9afc01949b85b780b5be24f8, type: 3}
  - {fileID: 21300000, guid: 48c17533823e0c647a37f9eb97e8aebf, type: 3}
  - {fileID: 21300000, guid: 6214ed3e19500804e903ab8fb2aff774, type: 3}
  - {fileID: 21300000, guid: 52cb6935c4408c34686f56135b3019d3, type: 3}
  - {fileID: 21300000, guid: cc25b34c70391a54093c7dcb15be16fa, type: 3}
  - {fileID: 21300000, guid: 6406a38fac2b6ac439ef2cbf171ac921, type: 3}
  - {fileID: 21300000, guid: 3fbad2ece50b66641bea7b19ac395bd9, type: 3}
  - {fileID: 21300000, guid: 0477f6bb87105474fb7b6865f3b11dee, type: 3}
  - {fileID: 21300000, guid: 728909d75c9a159418540baaa7a050e1, type: 3}
  - {fileID: 21300000, guid: 6b610b094c2ccf24781910979b44028a, type: 3}
  - {fileID: 21300000, guid: f80f5b4f72420b34dad64661ac1db569, type: 3}
  - {fileID: 21300000, guid: 62cd2b980659d2e4c91b833ca7d9f48f, type: 3}
  - {fileID: 21300000, guid: f7e7d444f898e814cb09f8a5102efc2f, type: 3}
  - {fileID: 21300000, guid: f867e85800bb61845899b73651991bcc, type: 3}
  - {fileID: 21300000, guid: 957151f2ca516d04d972c777a76fe64e, type: 3}
  - {fileID: 21300000, guid: 22ef0f573a560a64198020c528bd6e9d, type: 3}
  - {fileID: 21300000, guid: f256feb8bd1449846b0c1e87c0b39501, type: 3}
  - {fileID: 21300000, guid: 3b81fd01ad61c994bb19606257779c0a, type: 3}
  - {fileID: 21300000, guid: 71b76755323daca4f96c00d8b45a71a8, type: 3}
  - {fileID: 21300000, guid: 8487ff5430281e54d917cdadb9156523, type: 3}
  - {fileID: 21300000, guid: 32cdf96dcb45587478ca783c4059e625, type: 3}
  - {fileID: 21300000, guid: 5c5331615cf524e439c530443e078542, type: 3}
  - {fileID: 21300000, guid: 870c2d5c99b774842b85cdcd33ce1a7c, type: 3}
  - {fileID: 21300000, guid: c6975c43f4f493742aef87f49909d69f, type: 3}
  - {fileID: 21300000, guid: ff1d3c303c2db7547a2dc41817e080f1, type: 3}
  - {fileID: 21300000, guid: 32483a29900fdd54daa68414756e3bd1, type: 3}
  - {fileID: 21300000, guid: ecc6505f35655424ebee07ebaefb6ca7, type: 3}
  - {fileID: 21300000, guid: d40513242e8054848ae29e02bb94051d, type: 3}
  - {fileID: 21300000, guid: 8e863434f523e484487ebbc510ffa4bb, type: 3}
  - {fileID: 21300000, guid: d7d1b6de4f07e2341aeee9c9251a0acc, type: 3}
  - {fileID: 21300000, guid: 45db057a402c65546afa6b17274517de, type: 3}
  - {fileID: 21300000, guid: 62f902661ccf85945821410e97f291cc, type: 3}
  - {fileID: 21300000, guid: dd53b9d5d31c868449099318b4a12275, type: 3}
  - {fileID: 21300000, guid: 2b1df2d68c2b1c543859af67d0086e2c, type: 3}
  - {fileID: 21300000, guid: 57fe0f5c9df7c44459c18ab5533f847a, type: 3}
  - {fileID: 21300000, guid: 8de5fd93b73d628449bd6f1995d1e9b9, type: 3}
  - {fileID: 21300000, guid: e1b5cec59acc356449ac55258ff0f9cb, type: 3}
  - {fileID: 21300000, guid: 8debdc21cc9c2f14092115cb44a63ac0, type: 3}
  - {fileID: 21300000, guid: c176faa350a69bc478b11108c3eb7219, type: 3}
  - {fileID: 21300000, guid: 7dbae86d4c561394697a4d08526315ce, type: 3}
  - {fileID: 21300000, guid: 882744a9f9efb6f4aa311bc24b64d0ed, type: 3}
  useDefaultFrameRate: 1
  animationSpeed: 2
  frameRate: 24
  loop: 1
