%YAML 1.1
%TAG !u! tag:unity3d.com,2011:
--- !u!114 &11400000
MonoBehaviour:
  m_ObjectHideFlags: 0
  m_CorrespondingSourceObject: {fileID: 0}
  m_PrefabInstance: {fileID: 0}
  m_PrefabAsset: {fileID: 0}
  m_GameObject: {fileID: 0}
  m_Enabled: 1
  m_EditorHideFlags: 0
  m_Script: {fileID: 11500000, guid: 10ee8f3fba35a6d448b4c31bc9b15a06, type: 3}
  m_Name: Player_Walk_Front
  m_EditorClassIdentifier: 
  frames:
  - {fileID: 21300000, guid: d6a1a2d126235924fbf10e7a694813e2, type: 3}
  - {fileID: 21300000, guid: 188824c22c3009047a46c0a03a554ece, type: 3}
  - {fileID: 21300000, guid: ccd7d8328eec3364bb32ad2c68143b4d, type: 3}
  - {fileID: 21300000, guid: d2c866032b3d80643894b77a73733af2, type: 3}
  - {fileID: 21300000, guid: 08670aae269fb7543a5a393c8dddd4de, type: 3}
  - {fileID: 21300000, guid: 367fae6fb6823fd458a91f89bb2f1370, type: 3}
  - {fileID: 21300000, guid: db59315ee7abdee47884d71bdadf3f1a, type: 3}
  - {fileID: 21300000, guid: 9566e5c649c70104c901d4a9e8e365a7, type: 3}
  - {fileID: 21300000, guid: 5c60c1700f7d23147a1e285967d6a4e0, type: 3}
  - {fileID: 21300000, guid: 8a73b34755bc2b041859d7a8d490c9d9, type: 3}
  - {fileID: 21300000, guid: 978329040398b3e4f888f1d5d18111d4, type: 3}
  - {fileID: 21300000, guid: 2f11c4d5b51d39c428cf1833bb4aef77, type: 3}
  - {fileID: 21300000, guid: 79a3f29b36a8d2f4b87da4f5feb01c43, type: 3}
  - {fileID: 21300000, guid: 9240b41b833c3c7469316f818db4c692, type: 3}
  - {fileID: 21300000, guid: c383048549a679f41a8d9ffafb22c7b6, type: 3}
  - {fileID: 21300000, guid: 250c2fa5e9df67748a2accca2f479a84, type: 3}
  - {fileID: 21300000, guid: 05bc0c99f79713d489127e547271af3c, type: 3}
  - {fileID: 21300000, guid: e00a160e7c5d0f54e8c8680fbd615d0c, type: 3}
  - {fileID: 21300000, guid: 18066780e37bf774897ee9c52f3e3892, type: 3}
  - {fileID: 21300000, guid: 9f9e31b8e91e8744ba14ba7ae054c30c, type: 3}
  - {fileID: 21300000, guid: 5d1773aa9b96bc143a19352ea380bcfa, type: 3}
  - {fileID: 21300000, guid: 43bce903211d6764e882107787468365, type: 3}
  - {fileID: 21300000, guid: 995782f7282464d488f5f558e5ce8fe8, type: 3}
  - {fileID: 21300000, guid: f7b3dd368fdcf5743a2fb0ca9965392a, type: 3}
  - {fileID: 21300000, guid: 6fdffb82df9cc154996d3f1eb64e28f0, type: 3}
  - {fileID: 21300000, guid: a4e72c825f34e6f4bbca72f3090eff38, type: 3}
  - {fileID: 21300000, guid: 51161e30c5ee13940aaf3c3096c3e630, type: 3}
  - {fileID: 21300000, guid: 77e7378f984dae949841088bb087916b, type: 3}
  - {fileID: 21300000, guid: 5482176a33064164ab016bf0628c556a, type: 3}
  - {fileID: 21300000, guid: c6ad35719c7862e45b4a9b0f14ece7bd, type: 3}
  - {fileID: 21300000, guid: b5a54bdfee8a7f64fa02acb54d4fb84d, type: 3}
  - {fileID: 21300000, guid: d52d4b974e4009e47a6b168da50198a3, type: 3}
  - {fileID: 21300000, guid: 2d93d01ee96e00a48a83591d58b3edf8, type: 3}
  - {fileID: 21300000, guid: b19efa606633be743b6821dd6f564952, type: 3}
  - {fileID: 21300000, guid: abfbe71ce03ba364fb5314acd7343269, type: 3}
  - {fileID: 21300000, guid: 79673da50606c7e49af2ee28dfb0511b, type: 3}
  - {fileID: 21300000, guid: b9726f8b0fb7aa441b9253a912601d29, type: 3}
  - {fileID: 21300000, guid: e92e143fbb6f0d941abea79f6ebdbace, type: 3}
  - {fileID: 21300000, guid: aa2642ba5ed338d449f02ae2dd6c0786, type: 3}
  - {fileID: 21300000, guid: 27ebab4a382b9904fa50f50a4f856358, type: 3}
  useDefaultFrameRate: 1
  animationSpeed: 2
  frameRate: 120
  loop: 1
