%YAML 1.1
%TAG !u! tag:unity3d.com,2011:
--- !u!114 &11400000
MonoBehaviour:
  m_ObjectHideFlags: 0
  m_CorrespondingSourceObject: {fileID: 0}
  m_PrefabInstance: {fileID: 0}
  m_PrefabAsset: {fileID: 0}
  m_GameObject: {fileID: 0}
  m_Enabled: 1
  m_EditorHideFlags: 0
  m_Script: {fileID: 11500000, guid: 652a3a3b34fa31e40b32c63e51cad5b2, type: 3}
  m_Name: MurmurTutorial
  m_EditorClassIdentifier: 
  optionPreface: Hey...
  sentences:
  - sentence: Hey...
    speaker: 2
    reactionSprite: {fileID: 21300000, guid: 477e46f4d3ef45b43b8482d02a92714c, type: 3}
    showEloise: 0
    showSpeaker: 0
  - sentence: Hey.
    speaker: 2
    reactionSprite: {fileID: 0}
    showEloise: 0
    showSpeaker: 0
  - sentence: Eloise.
    speaker: 2
    reactionSprite: {fileID: 0}
    showEloise: 0
    showSpeaker: 0
  - sentence: Are you paying attention Eloise?
    speaker: 2
    reactionSprite: {fileID: 0}
    showEloise: 0
    showSpeaker: 0
  - sentence: I am.
    speaker: 0
    reactionSprite: {fileID: 21300000, guid: 05cfe33d5843c5a4696722821e6e7fb7, type: 3}
    showEloise: 1
    showSpeaker: 0
  - sentence: If you're going to be out this late at night, you need to learn to
      defend yourself!
    speaker: 2
    reactionSprite: {fileID: 21300000, guid: 4ca073b35014a5c4cbed54facf5eaf7f, type: 3}
    showEloise: 1
    showSpeaker: 1
  - sentence: You're the one who wanted to play tonight.
    speaker: 0
    reactionSprite: {fileID: 21300000, guid: 4ca073b35014a5c4cbed54facf5eaf7f, type: 3}
    showEloise: 1
    showSpeaker: 1
  - sentence: There's something coming.
    speaker: 2
    reactionSprite: {fileID: 21300000, guid: 4ca073b35014a5c4cbed54facf5eaf7f, type: 3}
    showEloise: 0
    showSpeaker: 1
  - sentence: It's just a little test okay?
    speaker: 2
    reactionSprite: {fileID: 21300000, guid: 477e46f4d3ef45b43b8482d02a92714c, type: 3}
    showEloise: 0
    showSpeaker: 1
  - sentence: I want you to lay down a salt circle.
    speaker: 2
    reactionSprite: {fileID: 21300000, guid: abc656f52c917e549a992dad63525b38, type: 3}
    showEloise: 0
    showSpeaker: 1
  - sentence: That critter can't cross the boundries of the circle without getting
      hurt.
    speaker: 2
    reactionSprite: {fileID: 21300000, guid: 477e46f4d3ef45b43b8482d02a92714c, type: 3}
    showEloise: 0
    showSpeaker: 1
  trapToUnlock: {fileID: 0}
  textColor: {r: 0, g: 0, b: 0, a: 1}
  unlockDay: 0
