%YAML 1.1
%TAG !u! tag:unity3d.com,2011:
--- !u!114 &11400000
MonoBehaviour:
  m_ObjectHideFlags: 0
  m_CorrespondingSourceObject: {fileID: 0}
  m_PrefabInstance: {fileID: 0}
  m_PrefabAsset: {fileID: 0}
  m_GameObject: {fileID: 0}
  m_Enabled: 1
  m_EditorHideFlags: 0
  m_Script: {fileID: 11500000, guid: 652a3a3b34fa31e40b32c63e51cad5b2, type: 3}
  m_Name: MurmurPostTrapPlacement
  m_EditorClassIdentifier: 
  optionPreface: Some traps might take longer to set up then others.
  sentences:
  - sentence: Some traps might take longer to set up then others.
    speaker: 2
    reactionSprite: {fileID: 21300000, guid: 235277800dcd4d64eae98e192b57d7da, type: 3}
    showEloise: 0
    showSpeaker: 1
  - sentence: Do you hear that Eloise?
    speaker: 2
    reactionSprite: {fileID: 21300000, guid: abc656f52c917e549a992dad63525b38, type: 3}
    showEloise: 0
    showSpeaker: 1
  - sentence: Here it comes.
    speaker: 2
    reactionSprite: {fileID: 21300000, guid: 4ca073b35014a5c4cbed54facf5eaf7f, type: 3}
    showEloise: 0
    showSpeaker: 1
  trapToUnlock: {fileID: 0}
  textColor: {r: 0, g: 0, b: 0, a: 1}
  unlockDay: 0
